{
    "IsPrivate" : false,
    "IsThreadRoot" : false,
    "NotificationID" : 1602,
    "NotificationTypeID" : "SIMPLE_NOTIFICATION",
    "Priority" : "NORMAL",
    "Sender" : "thrasys",
    "Subject" : "RE: \"Stuck\" clinical document (ID -136476)",
    "XeAppUserNotificationFolder" : [ {
      "ResourceID" : 1000,
      "StatusID" : "UNREAD",
      "Username" : "adminhie"
    } ]
  }
